{
  "responseStatus": {
    "message": "",
    "status": "0"
  },
  "entityName": "OWNACCOUNTTRANSFER",
  "headers": [{
    "displayName": "Id",
    "type": "String",
    "isDisplay": "N",
    "methodName": "Id"
  }, {
    "displayName": "Batch No.",
    "type": "String",
    "isDisplay": "Y",
    "methodName": "BatchNo"
  }, {
    "displayName": "Channel",
    "type": "String",
    "isDisplay": "Y",
    "methodName": "MakerChannel"
  }, {
    "displayName": "Payment Method",
    "type": "String",
    "isDisplay": "Y",
    "methodName": "PaymentMethodName"
  }, {
    "displayName": "Credit Account Title",
    "type": "String",
    "isDisplay": "N",
    "methodName": "BeneAccountTitle"
  }, {
    "displayName": "Transaction Date",
    "type": "Date",
    "isDisplay": "Y",
    "methodName": "EntryDate"
  }, {
    "displayName": "Debit Account No.",
    "type": "String",
    "isDisplay": "Y",
    "methodName": "DebitAccountNo"
  }, {
    "displayName": "Debit CCY",
    "type": "String",
    "isDisplay": "Y",
    "methodName": "SellCurrencyName"
  }, {
    "displayName": "Value Date",
    "type": "Date",
    "isDisplay": "N",
    "methodName": "ActivationDate"
  }, {
    "displayName": "Corp Ref No.",
    "type": "String",
    "isDisplay": "N",
    "methodName": "CorporateRefNo"
  }, {
    "displayName": "Debit Amount",
    "type": "Amount",
    "isDisplay": "Y",
    "methodName": "DebitAmount"
  }, {
    "displayName": "Credit Account No.",
    "type": "String",
    "isDisplay": "Y",
    "methodName": "AccountNo"
  }, {
    "displayName": "Credit CCY",
    "type": "String",
    "isDisplay": "Y",
    "methodName": "PayableCurrencyName"
  }, {
    "displayName": "Credit Amount",
    "type": "Amount",
    "isDisplay": "N",
    "methodName": "PayableAmount"
  }, {
    "displayName": "Status",
    "type": "String",
    "isDisplay": "Y",
    "methodName": "UIStatus"
  }, {
    "displayName": "Modified By",
    "type": "String",
    "isDisplay": "N",
    "methodName": "ModifiedBy"
  }, {
    "displayName": "Modified On",
    "type": "String",
    "isDisplay": "N",
    "methodName": "ModifiedOn"
  }],
  "dataList": [
    ["sh3J0zF3df8=,5", "25040819005", "WEB", "Outward Telegraphic Transfer", "ott test", "04-Aug-2019", "999001900011", "USD", "04-Aug-2019", "12", "550.00", "321322323232", "USD", "12.00", "Processing", "cnpcmaker1", "2019-08-04 15:40:07.0"],
    ["Uy439c2YyIk=,4", "25040819004", "WEB", "SLIPS", "IFT account", "04-Aug-2019", "999001900011", "LKR", "04-Aug-2019", "32", "21.00", "212414312311", "LKR", "21.00", "Failed", "cnpcmaker1", "2019-08-04 15:13:14.0"],
    ["UhYSQcBW/ng=,4", "25040819002", "WEB", "SLIPS", "IFT account", "04-Aug-2019", "999001900011", "LKR", "04-Aug-2019", "12", "12.00", "212414312311", "LKR", "12.00", "Failed", "cnpcmaker1", "2019-08-04 11:36:57.0"],
    ["A2INm2wuxU0=,3", "25040819001", "WEB", "SLIPS", "IFT account", "04-Aug-2019", "999001900011", "LKR", "04-Aug-2019", "12", "12.00", "212414312311", "LKR", "12.00", "To Be Posted To Core", "cnpcmaker1", "2019-08-04 09:47:18.0"],
    ["KdVZIkxBQQ8=,4", "25270719028", "WEB", "Internal Fund Transfer", "ACC11", "14-Mar-2019", "999001900001", "LKR", "27-Jul-2019", "66666", "7,999.00", "999001900011", "LKR", "7,999.00", "To Be Posted To Core", "cnpcmaker1", "2019-07-27 10:08:09.0"],
    ["P6vIlnslSRk=,5", "25170719086", "WEB", "Internal Fund Transfer", "ACC05", "17-Jul-2019", "999001900001", "USD", "17-Jul-2019", "sadsadsa", "550.00", "999001900005", "USD", "12.00", "Processed", "cnpcmaker1", "2019-07-17 10:40:24.0"],
    ["l0CmOGQpm88=,5", "25170719083", "WEB", "Internal Fund Transfer", "ACC05", "17-Jul-2019", "999001900001", "USD", "17-Jul-2019", "dsfd", "550.00", "999001900005", "USD", "1,234.00", "Processed", "cnpcmaker1", "2019-07-17 15:50:52.0"],
    ["hbFQSprt4yo=,5", "25170719082", "WEB", "Internal Fund Transfer", "ACC05", "17-Jul-2019", "999001900001", "USD", "17-Jul-2019", "dfgdg", "550.00", "999001900005", "USD", "1,500.00", "Processed", "cnpcmaker1", "2019-07-17 15:45:33.0"],
    ["VV+TBpX9teU=,5", "25170719081", "WEB", "Internal Fund Transfer", "ACC05", "17-Jul-2019", "999001900001", "USD", "17-Jul-2019", "sdfsd", "550.00", "999001900005", "USD", "2,500.00", "Processed", "cnpcmaker1", "2019-07-17 15:43:34.0"],
    ["OuBlU44d+xs=,5", "25170719080", "WEB", "Internal Fund Transfer", "ACC05", "17-Jul-2019", "999001900001", "USD", "17-Jul-2019", "sdfsdfsdf", "550.00", "999001900005", "USD", "2,500.00", "Processed", "cnpcmaker1", "2019-07-17 15:26:34.0"]
  ],
  "filters": [{
    "displayName": "Batch No.",
    "name": "batchNo",
    "type": "String"
  }, {
    "displayName": "Channel",
    "name": "makerChannel",
    "type": "String"
  }, {
    "displayName": "Debit Account No.",
    "name": "debitAccountNo",
    "type": "String"
  }, {
    "displayName": "Value Date",
    "name": "activationDate",
    "type": "Date"
  }],
  "pageNumber": 1,
  "totalPages": 4,
  "totalRecords": 33,
  "access": ["VIEW", "DATA-ENTRY", "AUTHORIZE"],
  "links": [
    [{
      "index": 1,
      "displayName": "View",
      "icon": "fa fa-eye",
      "url": null,
      "onClick": "view('sh3J0zF3df8=,5')"
    }, {
      "index": 1,
      "displayName": "Ack-Nack View",
      "icon": "icon-ack-nak",
      "url": null,
      "onClick": "ackNackViewOAT('sh3J0zF3df8=')"
    }],
    [{
      "index": 1,
      "displayName": "View",
      "icon": "fa fa-eye",
      "url": null,
      "onClick": "view('Uy439c2YyIk=,4')"
    }],
    [{
      "index": 1,
      "displayName": "View",
      "icon": "fa fa-eye",
      "url": null,
      "onClick": "view('UhYSQcBW/ng=,4')"
    }],
    [{
      "index": 1,
      "displayName": "View",
      "icon": "fa fa-eye",
      "url": null,
      "onClick": "view('A2INm2wuxU0=,3')"
    }],
    [{
      "index": 1,
      "displayName": "View",
      "icon": "fa fa-eye",
      "url": null,
      "onClick": "view('KdVZIkxBQQ8=,4')"
    }, {
      "index": 10,
      "displayName": "ViewAuthorizer",
      "icon": "icons-view-authorizer",
      "url": null,
      "onClick": "nextAuthorizer('KdVZIkxBQQ8=,4','B','T','authorized','cnpcmaker1','27-Jul-2019 10:08:09')"
    }],
    [{
      "index": 1,
      "displayName": "View",
      "icon": "fa fa-eye",
      "url": null,
      "onClick": "view('P6vIlnslSRk=,5')"
    }],
    [{
      "index": 1,
      "displayName": "View",
      "icon": "fa fa-eye",
      "url": null,
      "onClick": "view('l0CmOGQpm88=,5')"
    }],
    [{
      "index": 1,
      "displayName": "View",
      "icon": "fa fa-eye",
      "url": null,
      "onClick": "view('hbFQSprt4yo=,5')"
    }],
    [{
      "index": 1,
      "displayName": "View",
      "icon": "fa fa-eye",
      "url": null,
      "onClick": "view('VV+TBpX9teU=,5')"
    }],
    [{
      "index": 1,
      "displayName": "View",
      "icon": "fa fa-eye",
      "url": null,
      "onClick": "view('OuBlU44d+xs=,5')"
    }]
  ],
  "enrichments": {
    "selectedAuthType": "SOFTTOKEN"
  },
  "entityIdentifier": "",
  "loggable": false
}